Bonjour,greetings.hello
bonjour,greetings.hello
Salut,greetings.hello
salut,greetings.hello
Au revoir,greetings.bye
au revoir,greetings.bye
A plus tard,greetings.bye
A+,greetings.bye
aides,helping.help
informations,helping.help
information,helping.help
aide,helping.help
Comment puis-je savoir les aides auxquelles j'ai le droit ?,helping.questionnaire
aides que je mérite,helping.questionnaire
aides que je merite,helping.questionnaire
aides mérite,helping.questionnaire
aides merite,helping.questionnaire
aide que je mérite,helping.questionnaire
aide que je merite,helping.questionnaire
informations aides sociales,helping.questionnaire
information aide social,helping.questionnaire
Combien d'argent,helping.questionnaire
argent possible,helping.questionnaire
allocations sociales,helping.questionnaire
allocations sociales,helping.questionnaire
alloc sociales,helping.questionnaire
APL,helping.sujetADM
Crous,helping.sujetADM
CAF,helping.sujetADM
Sécurité sociale,helping.sujetADM
securite sociale,helping.sujetADM
secu,helping.sujetADM
Parrainage et conseillers,helping.sujetREL
parrainage  ,helping.sujetREL
réseau étudiant,helping.sujetREL
reseau etudiant,helping.sujetREL
reseau,helping.sujetREL
Aide intégration,helping.sujetREL
intégration,helping.sujetREL
integration,helping.sujetREL
mouvement social,helping.sujetREL
mvt social,helping.sujetREL
mouv social,helping.sujetREL
mouvemnt social,helping.sujetREL
aides pour tous,helping.sujetREL
aides tous,helping.sujetREL
prefecture,helping.sujetREL
préfecture,helping.sujetREL
prêts financement,helping.sujetADM
pret financement,helping.sujetADM
financement,helping.sujetADM
ouverture compte en banque,helping.sujetADM
compte en banque,helping.sujetADM
soutien,helping.sujetSCO
soutien scolaire,helping.sujetSCO
soutien psy,helping.sujetSCO
soutien psycho,helping.sujetSCO
soutien psychologique,helping.sujetSCO
soutien scolaire psychologique,helping.sujetSCO
recherche stage,helping.sujetSCO
je recherche un stage,helping.sujetSCO
je cherche un stage,helping.sujetSCO
je stage,helping.sujetSCO
orientation,helping.sujetSCO
je veux savoir m'orienter,helping.sujetSCO
comment choisir ma voie,helping.sujetSCO
Comment je m'appelle,answer.404
Ou acheter a manger,answer.404
aaaaaaaaaaaa,answer.404
Comment tu t'appelles ?,answer.SugarBot
réductions étudiantes,helping.sujetSTU
réductions  ,helping.sujetSTU
unidays,helping.sujetSTU
reductions,helping.sujetSTU
offres job,helping.sujetSTU
job,helping.sujetSTU
aide au logement,helping.sujetSTU
logement,helping.sujetSTU
Quel est ton nom,answer.sugarBot
ton nom,answer.sugarBot
tu t'appelles,answer.sugarBot
je suis en grande situation de précarité,answer.help
j'ai envie de me suicider,answer.help
je n'arrive plus à finir mes mois,answer.help
j'ai trop de travail,answer.help
je suis trop stresse,answer.help
je suis tres anxieux,answer.help
impact,easterEgg.impact
impact ou astr0,easterEgg.impact
Université Paris-Descartes,easterEgg.takeTheL
reponsesSugarBot,
Bonjour !,greetings.hello
Au revoir et n'hésiter😉,greetings.bye
En quoi puis-je vous aider ?,helping.help
Avez-vous répondu au questionnaire?,helping.questionnaire
Si vous avez des questions sur une des aides sociales existantes, consultez notre rubrique Administratif 📃,helping.sujetADM
Si vous avez des questions sur une des aides sociales existantes, consultez notre rubrique Relations 😇,helping.sujetREL
Si vous avez des questions sur une des aides sociales existantes, consultez notre rubrique Scolaire 🏫,helping.sujetSCO
Désolé, je ne peux pas vous aider concernant ce sujet. 😥,answer.404
Je suis Sugar Bot, le robot le plus sucré d'Internet 🤖,answer.SugarBot
Si vous avez des questions sur la vie étudiante, consultez notre rubrique Vie étudiante 👨‍🎓,helping.sujetSTU
N'hésitez pas à en parler dans votre entourage ou à un spécialiste. 116 006 ☎️,answer.help
Impact > Astr0,easterEgg.impact
le selfie déclenché,easterEgg.takeTheL